[
  {
    "dollarsPerMile": 0.50,
    "entries": [
      {
        "entry": {
          "description": "Commercial truck",
          "numberOfVehicles": 3,
          "startLocation": "OPKS",
          "endLocation": "Maryville, MO",
          "milesPerDrive": 100
        },
        "entry": {
          "description": "personal vehicle",
          "numberOfVehicles": 2,
          "startLocation": "OPKS",
          "endLocation": "Maryville, MO",
          "milesPerDrive": 100
        }
      }
    ],
    "subtotal": 250
  }
]